…
DatosViajes$mes <- ordered(DatosViajes$mes, levels=c("Agosto", "Septiembre", "Octubre", "Noviembre","Diciembre","Enero", "Febrero", "Marzo", "Abril", "Mayo", "Junio", "Julio"))

Viajespormes <- DatosViajes %>%
    group_by(tipo_usuario, mes) %>%
    summarise(Num_de_viajes = n(), DuracionPromedio = mean(duracion_viaje),.groups = "drop") %>%
    arrange(tipo_usuario, mes)
print(Viajespormes)
## # A tibble: 24 × 4
##    tipo_usuario mes        Num_de_viajes DuracionPromedio
##    <chr>        <ord>              <int>            <dbl>
##  1 casual       Agosto            310040             21.9
##  2 casual       Septiembre        260819             21.2
##  3 casual       Octubre           176540             19.0
##  4 casual       Noviembre          98072             16.1
##  5 casual       Diciembre          51478             14.7
##  6 casual       Enero              24320             13.7
##  7 casual       Febrero            46931             18.1
##  8 casual       Marzo              82200             19.6
##  9 casual       Abril             131337             21.4
## 10 casual       Mayo              230234             23.4
## # ℹ 14 more rows
…
